﻿[
	{
		"_id": "co-50",
		"_parentId": "course",
		"_type": "page",
		"_classes": "zh_cn",
		"title": "소개",
		"displayTitle": "소개",
		"pageBody": "&#160;",
		"body": "Instagram Stories의 기능과 작동 방식에 대해 알아봅니다.",
		"_graphic": {
			"src": "course/en/images/contentObjects/ashleymilardo_1.png",
			"alt": "개요"
		},
		"linkText": "보기",
		"durationLabel": "소요 시간:",
		"duration": "4분",
		"_pageLevelProgress": {
			"_isEnabled": true
		}
	},
    {
		"_id": "co-100",
		"_parentId": "course",
		"_type": "page",
		"_classes": "zh_cn",
		"title": "Instagram Stories 비즈니스 활용 사례",
		"displayTitle": "Instagram Stories 비즈니스 활용 사례",
		"pageBody": "&#160;",
		"body": "여러 비즈니스가 브랜드 스토리텔링에 효과적으로 Instagram Stories를 활용한 사례를 살펴봅니다.",
		"_graphic": {
			"src": "course/en/images/contentObjects/daise122_1.png",
			"alt": "개요"
		},
		"linkText": "보기",
		"durationLabel": "소요 시간:",
		"duration": "4분",
		"_pageLevelProgress": {
			"_isEnabled": true
		}
	},
    {
		"_id": "co-150",
		"_parentId": "course",
		"_type": "page",
		"_classes": "zh_cn",
		"title": "Instagram Stories 광고",
		"displayTitle": "Instagram Stories 광고",
		"pageBody": "&#160;",
		"body": "Instagram Stories 광고가 어떤 식으로 게재되고 있는지 알아보고, 여러 비즈니스가 성공적으로 Instagram Stories 광고를 활용한 사례를 살펴봅니다.",
		"_graphic": {
			"src": "course/en/images/contentObjects/daise122_2.png",
			"alt": "개요"
		},
		"linkText": "보기",
		"durationLabel": "소요 시간:",
		"duration": "4분",
		"_pageLevelProgress": {
			"_isEnabled": true
		}
	},
    {
		"_id": "co-200",
		"_parentId": "course",
		"_type": "page",
		"_classes": "zh_cn",
		"title": "Instagram Stories 광고 제작 방법",
		"displayTitle": "Instagram Stories 광고 제작 방법",
		"pageBody": "&#160;",
		"body": "Instagram Stories 광고 제작 방법을 단계별로 알아봅니다.",
		"_graphic": {
			"src": "course/en/images/contentObjects/ashleymilardo_2.png",
			"alt": "개요"
		},
		"linkText": "보기",
		"durationLabel": "소요 시간:",
		"duration": "4분",
		"_pageLevelProgress": {
			"_isEnabled": true
		}
	},
    {
		"_id": "co-250",
		"_parentId": "course",
		"_type": "page",
		"_classes": "zh_cn",
		"title": "Instagram Stories 인사이트",
		"displayTitle": "Instagram Stories 인사이트",
		"pageBody": "&#160;",
		"body": "효과적으로 Instagram Stories를 활용하고, 이를 통해 얻을 수 있는 인사이트를 살펴봅니다.",
		"_graphic": {
			"src": "course/en/images/contentObjects/ashleymilardo_3.png",
			"alt": "개요"
		},
		"linkText": "보기",
		"durationLabel": "소요 시간:",
		"duration": "4분",
		"_pageLevelProgress": {
			"_isEnabled": true
		}
	}
    
]
